Ticket ID,Subject,Status,Priority,Due by Time,Last update time,Origin of the ticket,Next communication,Company Name
00001,"Test ticket1",Open,High,2020-05-13 23:59:59,2020-06-08 19:57:36,Customer,"12 May, 2020",iFood (110339)
00002,"Test ticket2",Open,High,2020-06-13 23:59:59,2020-06-08 19:57:36,Monitoring,"01 Jun, 2020",iFood (110339)
00003,"Test ticket3",Open,High,2020-07-13 23:59:59,2020-06-08 19:57:36,Monitoring,"12 Jul, 2020",iFood (110339)
00004,"Test ticket4",Open,High,2020-08-13 23:59:59,2020-06-08 19:57:36,Monitoring,"12 Jun, 2020",iFood (110339)
00005,"Test ticket5",Open,High,2020-09-13 23:59:59,2020-06-08 19:57:36,Monitoring,"12 Jun, 2020",iFood (110339)
